{
  "auth": "zef:jjatria",
  "authors": [
    "José Joaquín Atria"
  ],
  "depends": {
    "test": {
      "requires": [
        "Test"
      ]
    }
  },
  "description": "A simple entity registry for ECS designs",
  "license": "Artistic-2.0",
  "name": "Game::Entities",
  "perl": "6.d",
  "provides": {
    "Game::Entities": "lib/Game/Entities.rakumod"
  },
  "source-url": "git@gitlab.com:jjatria/raku-game-entities.git",
  "tags": [
    "game",
    "ecs"
  ],
  "version": "0.1.7"
}
